[
{
  "model": "auth.user",
  "pk": 1,
  "fields": {
    "password": "pbkdf2_sha256$36000$OQ5GH1YsiitJ$B0Tr8kzuaxZxAD+Y8qM6HHMmljcl2X0t1zth23Fo7Xo=",
    "last_login": "2018-03-11T04:21:57.324Z",
    "is_superuser": true,
    "username": "test@urbvan.com",
    "first_name": "",
    "last_name": "",
    "email": "test@urbvan.com",
    "is_staff": true,
    "is_active": true,
    "date_joined": "2018-03-11T02:37:43.228Z",
    "groups": [],
    "user_permissions": []
  }
}
]
