[
{
  "model": "api.route",
  "pk": 1,
  "fields": {
    "name": "Santa Fe - Juanacatlán"
  }
},
{
  "model": "api.stop",
  "pk": 1,
  "fields": {
    "address": "Office Depot Santa Fe",
    "name": "Office Depot Santa Fe"
  }
},
{
  "model": "api.stop",
  "pk": 2,
  "fields": {
    "address": "Edificio Telefónica",
    "name": "Edificio Telefónica"
  }
},
{
  "model": "api.stop",
  "pk": 3,
  "fields": {
    "address": "Samara S.",
    "name": "Samara S."
  }
},
{
  "model": "api.stop",
  "pk": 4,
  "fields": {
    "address": "Patio SF",
    "name": "Patio SF"
  }
},
{
  "model": "api.stop",
  "pk": 5,
  "fields": {
    "address": "Juanacatlán",
    "name": "Juanacatlán"
  }
},
{
  "model": "api.stop",
  "pk": 6,
  "fields": {
    "address": "Juanacatlán",
    "name": "Juanacatlán"
  }
},
{
  "model": "api.routestop",
  "pk": 1,
  "fields": {
    "route": 1,
    "stop": 1,
    "order": 1
  }
},
{
  "model": "api.routestop",
  "pk": 2,
  "fields": {
    "route": 1,
    "stop": 2,
    "order": 2
  }
},
{
  "model": "api.routestop",
  "pk": 3,
  "fields": {
    "route": 1,
    "stop": 3,
    "order": 3
  }
},
{
  "model": "api.routestop",
  "pk": 4,
  "fields": {
    "route": 1,
    "stop": 4,
    "order": 4
  }
},
{
  "model": "api.routestop",
  "pk": 5,
  "fields": {
    "route": 1,
    "stop": 5,
    "order": 5
  }
},
{
  "model": "api.routestop",
  "pk": 6,
  "fields": {
    "route": 1,
    "stop": 5,
    "order": 6
  }
},
{
  "model": "api.reservation",
  "pk": 25046,
  "fields": {
    "client": 1,
    "unit_price": "35.00",
    "seats": 2,
    "pickup": 1,
    "dropoff": 6,
    "route": 1,
    "billed": false,
    "created_at": "2018-03-11T18:22:53.517Z",
    "traveled_at": "2018-03-12T05:53:09.454Z"
  }
},
{
  "model": "api.reservation",
  "pk": 37835,
  "fields": {
    "client": 1,
    "unit_price": "35.00",
    "seats": 1,
    "pickup": 1,
    "dropoff": 6,
    "route": 1,
    "billed": false,
    "created_at": "2018-03-11T18:22:53.517Z",
    "traveled_at": "2018-03-12T05:53:09.454Z"
  }
},
{
  "model": "api.reservation",
  "pk": 62749,
  "fields": {
    "client": 1,
    "unit_price": "35.00",
    "seats": 1,
    "pickup": 1,
    "dropoff": 6,
    "route": 1,
    "billed": false,
    "created_at": "2018-03-11T18:22:53.517Z",
    "traveled_at": "2018-03-12T05:53:09.454Z"
  }
},
{
  "model": "api.reservation",
  "pk": 67636,
  "fields": {
    "client": 1,
    "unit_price": "35.00",
    "seats": 2,
    "pickup": 1,
    "dropoff": 6,
    "route": 1,
    "billed": false,
    "created_at": "2018-03-11T18:22:53.517Z",
    "traveled_at": "2018-03-12T05:53:09.454Z"
  }
},
{
  "model": "api.reservation",
  "pk": 80783,
  "fields": {
    "client": 1,
    "unit_price": "35.00",
    "seats": 1,
    "pickup": 1,
    "dropoff": 6,
    "route": 1,
    "billed": false,
    "created_at": "2018-03-11T18:22:53.517Z",
    "traveled_at": "2018-03-12T05:53:09.454Z"
  }
}
]
